R bootcamp for lexical semanticists
…
---

# Let's read in a file (spreadsheet style)

Let's call the dataset and see what the .blue[tibble] looks like

```r
dataset
```

```
## # A tibble: 34 x 9
##    linguist_lastna… linguist_firstn… kind_of books books_published
##    <chr>            <chr>            <chr>   <chr>           <dbl>
##  1 Lakoff           George           genera… irre…            1970
##  2 Lakoff           George           cognit… meta…            1980
##  3 Lakoff           George           cognit… wome…            1987
##  4 Lakoff           George           cognit… more…            1989
##  5 Lakoff           George           cognit… mora…            1996
##  6 Lakoff           George           cognit… phil…            1999
##  7 Lakoff           George           cognit… wher…            2000
##  8 Lakoff           George           cognit… don'…            2004
##  9 Lakoff           George           cognit… thin…            2006
## 10 Lakoff           George           cognit… whos…            2006
## # … with 24 more rows, and 4 more variables: date_born <dbl>,
## #   date_died <chr>, gender <chr>, is_female <chr>
```
…
```r
lifespandf <- dataset %>%
  select(linguist_lastname, date_born, date_died) %>%
  mutate(date_died = case_when(
    date_died == "alive" ~ "2019",
    TRUE ~ date_died
  )) %>%
  mutate(date_died = as.numeric(date_died)) %>%
  mutate(lifespan = date_died - date_born) 

lifespandf
```

```
## # A tibble: 34 x 4
##    linguist_lastname date_born date_died lifespan
##    <chr>                 <dbl>     <dbl>    <dbl>
##  1 Lakoff                 1941      2019       78
##  2 Lakoff                 1941      2019       78
##  3 Lakoff                 1941      2019       78
##  4 Lakoff                 1941      2019       78
##  5 Lakoff                 1941      2019       78
##  6 Lakoff                 1941      2019       78
##  7 Lakoff                 1941      2019       78
##  8 Lakoff                 1941      2019       78
##  9 Lakoff                 1941      2019       78
## 10 Lakoff                 1941      2019       78
## # … with 24 more rows
```
…
